M48
; DRILL file {KiCad 6.0.6} date Mon 08 Aug 2022 11:55:25 AM PDT
; FORMAT={-:-/ absolute / metric / decimal}
; #@! TF.CreationDate,2022-08-08T11:55:25-07:00
; #@! TF.GenerationSoftware,Kicad,Pcbnew,6.0.6
; #@! TF.FileFunction,Plated,1,2,PTH
FMAT,2
METRIC
; #@! TA.AperFunction,Plated,PTH,ViaDrill
T1C0.400
; #@! TA.AperFunction,Plated,PTH,ComponentDrill
T2C0.800
; #@! TA.AperFunction,Plated,PTH,ComponentDrill
T3C1.000
%
G90
G05
T1
X1.761Y4.775
X4.301Y5.41
X6.841Y6.045
X9.381Y6.68
X11.921Y7.315
X13.826Y21.285
X14.461Y38.43
X14.461Y13.03
X14.461Y7.95
X15.096Y12.395
X15.731Y11.76
X16.366Y11.125
X17.001Y10.49
X17.001Y10.49
X17.001Y8.585
X17.636Y9.855
X18.271Y4.14
X18.906Y4.775
X20.811Y8.585
X21.43Y8.019
X21.446Y4.775
X22.083Y7.558
X22.716Y6.68
X23.101Y29.788
X23.351Y6.045
X23.351Y4.14
X23.986Y5.41
X24.621Y28.905
X24.621Y4.775
X25.891Y30.81
X25.891Y30.011
X26.526Y32.08
X26.526Y21.285
X27.161Y30.81
X27.161Y30.011
X27.796Y9.855
X44.941Y16.84
X44.941Y13.665
X46.211Y30.175
X46.211Y13.665
X47.481Y30.81
X47.481Y13.665
X48.751Y32.08
X48.751Y13.665
X51.291Y7.315
X53.831Y22.555
X53.831Y13.665
X54.466Y28.905
X54.659Y27.829
X55.101Y30.175
X55.101Y13.665
X56.371Y24.46
X56.371Y13.665
X57.641Y23.825
X57.641Y13.665
X58.911Y27.0
X58.911Y13.665
X60.181Y28.905
X60.181Y13.665
X61.451Y26.365
X61.451Y13.665
X62.721Y28.27
X62.721Y13.665
X63.991Y25.095
X63.991Y13.665
X65.261Y23.19
X65.261Y13.665
X67.893Y18.501
X70.341Y19.38
X72.901Y17.37
X75.586Y15.107
X77.961Y14.935
X80.501Y15.57
X83.041Y16.205
X85.581Y18.11
T2
X18.271Y44.78
X18.271Y37.16
X25.891Y44.78
X25.891Y37.16
X33.511Y44.78
X33.511Y37.16
T3
X1.803Y1.753
X4.343Y1.753
X6.883Y1.753
X9.423Y1.753
X11.963Y1.753
X14.503Y1.753
X17.043Y1.753
X19.583Y1.753
X22.123Y1.753
X24.663Y1.753
X27.203Y1.753
X29.743Y1.753
X32.283Y1.753
X34.823Y1.753
X37.363Y1.753
X39.903Y1.753
X42.443Y4.293
X42.443Y1.753
X44.983Y4.293
X44.983Y1.753
X47.523Y4.293
X47.523Y1.753
X50.063Y4.293
X50.063Y1.753
X52.603Y4.293
X52.603Y1.753
X55.143Y4.293
X55.143Y1.753
X57.683Y4.293
X57.683Y1.753
X60.223Y4.293
X60.223Y1.753
X62.763Y4.293
X62.763Y1.753
X65.303Y4.293
X65.303Y1.753
X67.843Y1.753
X70.383Y1.753
X72.923Y1.753
X75.463Y1.753
X78.003Y1.753
X80.543Y1.753
X83.083Y1.753
X85.623Y1.753
X88.163Y1.753
X90.703Y1.753
X93.243Y1.753
X95.783Y1.753
X98.323Y1.753
T0
M30
