M48
; DRILL file {KiCad (6.0.6)} date Tue Jul 26 07:37:59 2022
; FORMAT={-:-/ absolute / metric / decimal}
; #@! TF.CreationDate,2022-07-26T07:37:59-07:00
; #@! TF.GenerationSoftware,Kicad,Pcbnew,(6.0.6)
; #@! TF.FileFunction,NonPlated,1,2,NPTH
FMAT,2
METRIC
; #@! TA.AperFunction,NonPlated,NPTH,ComponentDrill
T1C0.610
; #@! TA.AperFunction,NonPlated,NPTH,ComponentDrill
T2C3.200
%
G90
G05
T1
X10.65Y99.039
X10.65Y98.251
X10.65Y96.009
X10.65Y94.511
X19.3Y99.039
X19.3Y98.251
X19.3Y96.009
X19.3Y94.511
T2
X5.0Y95.0
X5.0Y5.0
X95.0Y95.0
X95.0Y5.0
T0
M30
