%TF.GenerationSoftware,KiCad,Pcbnew,(6.0.6)*%
%TF.CreationDate,2022-07-26T07:38:06-07:00*%
%TF.ProjectId,backplane16,6261636b-706c-4616-9e65-31362e6b6963,rev?*%
%TF.SameCoordinates,PX55d4a80PY8583b00*%
%TF.FileFunction,Soldermask,Top*%
%TF.FilePolarity,Negative*%
%FSLAX46Y46*%
G04 Gerber Fmt 4.6, Leading zero omitted, Abs format (unit mm)*
G04 Created by KiCad (PCBNEW (6.0.6)) date 2022-07-26 07:38:06*
%MOMM*%
%LPD*%
G01*
G04 APERTURE LIST*
G04 Aperture macros list*
%AMRoundRect*
0 Rectangle with rounded corners*
0 $1 Rounding radius*
0 $2 $3 $4 $5 $6 $7 $8 $9 X,Y pos of 4 corners*
0 Add a 4 corners polygon primitive as box body*
4,1,4,$2,$3,$4,$5,$6,$7,$8,$9,$2,$3,0*
0 Add four circle primitives for the rounded corners*
1,1,$1+$1,$2,$3*
1,1,$1+$1,$4,$5*
1,1,$1+$1,$6,$7*
1,1,$1+$1,$8,$9*
0 Add four rect primitives between the rounded corners*
20,1,$1+$1,$2,$3,$4,$5,0*
20,1,$1+$1,$4,$5,$6,$7,0*
20,1,$1+$1,$6,$7,$8,$9,0*
20,1,$1+$1,$8,$9,$2,$3,0*%
G04 Aperture macros list end*
%ADD10C,3.200000*%
%ADD11R,1.700000X1.700000*%
%ADD12O,1.700000X1.700000*%
%ADD13RoundRect,0.200000X-0.200000X-0.275000X0.200000X-0.275000X0.200000X0.275000X-0.200000X0.275000X0*%
%ADD14R,1.550000X1.300000*%
%ADD15RoundRect,0.225000X-0.250000X0.225000X-0.250000X-0.225000X0.250000X-0.225000X0.250000X0.225000X0*%
%ADD16C,1.700000*%
%ADD17C,0.609600*%
%ADD18C,0.660400*%
%ADD19O,1.117600X2.616200*%
%ADD20O,1.117600X1.905000*%
%ADD21RoundRect,0.218750X-0.218750X-0.256250X0.218750X-0.256250X0.218750X0.256250X-0.218750X0.256250X0*%
%ADD22RoundRect,0.200000X0.200000X0.275000X-0.200000X0.275000X-0.200000X-0.275000X0.200000X-0.275000X0*%
%ADD23C,1.500000*%
%ADD24RoundRect,0.225000X0.225000X0.250000X-0.225000X0.250000X-0.225000X-0.250000X0.225000X-0.250000X0*%
%ADD25RoundRect,0.218750X0.218750X0.256250X-0.218750X0.256250X-0.218750X-0.256250X0.218750X-0.256250X0*%
%ADD26R,0.406400X0.997699*%
G04 APERTURE END LIST*
D10*
%TO.C,*%
X5000000Y5000000D03*
%TD*%
D11*
%TO.C,J7*%
X64615000Y98090000D03*
D12*
X64615000Y95550000D03*
X64615000Y93010000D03*
X64615000Y90470000D03*
X64615000Y87930000D03*
X64615000Y85390000D03*
X64615000Y82850000D03*
X64615000Y80310000D03*
X64615000Y77770000D03*
X64615000Y75230000D03*
X64615000Y72690000D03*
X64615000Y70150000D03*
X64615000Y67610000D03*
X64615000Y65070000D03*
X64615000Y62530000D03*
X64615000Y59990000D03*
X64615000Y57450000D03*
X64615000Y54910000D03*
X64615000Y52370000D03*
X64615000Y49830000D03*
X64615000Y47290000D03*
X64615000Y44750000D03*
X64615000Y42210000D03*
X64615000Y39670000D03*
X64615000Y37130000D03*
X64615000Y34590000D03*
X64615000Y32050000D03*
X64615000Y29510000D03*
X64615000Y26970000D03*
X64615000Y24430000D03*
X64615000Y21890000D03*
X64615000Y19350000D03*
X64615000Y16810000D03*
X64615000Y14270000D03*
X64615000Y11730000D03*
X64615000Y9190000D03*
X64615000Y6650000D03*
X64615000Y4110000D03*
X64615000Y1570000D03*
%TD*%
D13*
%TO.C,R1*%
X17607500Y8555000D03*
X19257500Y8555000D03*
%TD*%
D14*
%TO.C,SW1*%
X10510000Y5725000D03*
X18460000Y5725000D03*
X18460000Y1225000D03*
X10510000Y1225000D03*
%TD*%
D15*
%TO.C,C_U2*%
X15289098Y14784098D03*
X15289098Y13234098D03*
%TD*%
D16*
%TO.C,J11*%
X82075000Y57450000D03*
D12*
X82075000Y54910000D03*
X82075000Y52370000D03*
X82075000Y49830000D03*
X82075000Y47290000D03*
X82075000Y44750000D03*
X82075000Y42210000D03*
X82075000Y39670000D03*
X82075000Y37130000D03*
X82075000Y34590000D03*
X82075000Y32050000D03*
X82075000Y29510000D03*
X82075000Y26970000D03*
X82075000Y24430000D03*
X82075000Y21890000D03*
X82075000Y19350000D03*
X82075000Y16810000D03*
X82075000Y14270000D03*
X82075000Y11730000D03*
X82075000Y9190000D03*
X82075000Y6650000D03*
X82075000Y4110000D03*
X82075000Y1570000D03*
%TD*%
D15*
%TO.C,C_U1*%
X15289098Y10199098D03*
X15289098Y8649098D03*
%TD*%
D16*
%TO.C,J5*%
X42075000Y57450000D03*
D12*
X42075000Y54910000D03*
X42075000Y52370000D03*
X42075000Y49830000D03*
X42075000Y47290000D03*
X42075000Y44750000D03*
X42075000Y42210000D03*
X42075000Y39670000D03*
X42075000Y37130000D03*
X42075000Y34590000D03*
X42075000Y32050000D03*
X42075000Y29510000D03*
X42075000Y26970000D03*
X42075000Y24430000D03*
X42075000Y21890000D03*
X42075000Y19350000D03*
X42075000Y16810000D03*
X42075000Y14270000D03*
X42075000Y11730000D03*
X42075000Y9190000D03*
X42075000Y6650000D03*
X42075000Y4110000D03*
X42075000Y1570000D03*
%TD*%
D11*
%TO.C,J16*%
X50980000Y94350000D03*
D12*
X53520000Y94350000D03*
X56060000Y94350000D03*
X58600000Y94350000D03*
%TD*%
D11*
%TO.C,J14*%
X96055000Y89200000D03*
D12*
X98595000Y89200000D03*
X96055000Y86660000D03*
X98595000Y86660000D03*
X96055000Y84120000D03*
X98595000Y84120000D03*
X96055000Y81580000D03*
X98595000Y81580000D03*
X96055000Y79040000D03*
X98595000Y79040000D03*
X96055000Y76500000D03*
X98595000Y76500000D03*
X96055000Y73960000D03*
X98595000Y73960000D03*
X96055000Y71420000D03*
X98595000Y71420000D03*
X96055000Y68880000D03*
X98595000Y68880000D03*
X96055000Y66340000D03*
X98595000Y66340000D03*
X96055000Y63800000D03*
X98595000Y63800000D03*
X96055000Y61260000D03*
X98595000Y61260000D03*
X96055000Y58720000D03*
X98595000Y58720000D03*
X96055000Y56180000D03*
X98595000Y56180000D03*
X96055000Y53640000D03*
X98595000Y53640000D03*
X96055000Y51100000D03*
X98595000Y51100000D03*
X96055000Y48560000D03*
X98595000Y48560000D03*
X96055000Y46020000D03*
X98595000Y46020000D03*
X96055000Y43480000D03*
X98595000Y43480000D03*
X96055000Y40940000D03*
X98595000Y40940000D03*
X96055000Y38400000D03*
X98595000Y38400000D03*
X96055000Y35860000D03*
X98595000Y35860000D03*
X96055000Y33320000D03*
X98595000Y33320000D03*
X96055000Y30780000D03*
X98595000Y30780000D03*
X96055000Y28240000D03*
X98595000Y28240000D03*
X96055000Y25700000D03*
X98595000Y25700000D03*
X96055000Y23160000D03*
X98595000Y23160000D03*
X96055000Y20620000D03*
X98595000Y20620000D03*
X96055000Y18080000D03*
X98595000Y18080000D03*
X96055000Y15540000D03*
X98595000Y15540000D03*
X96055000Y13000000D03*
X98595000Y13000000D03*
X96055000Y10460000D03*
X98595000Y10460000D03*
%TD*%
D11*
%TO.C,J1*%
X24615000Y98090000D03*
D12*
X24615000Y95550000D03*
X24615000Y93010000D03*
X24615000Y90470000D03*
X24615000Y87930000D03*
X24615000Y85390000D03*
X24615000Y82850000D03*
X24615000Y80310000D03*
X24615000Y77770000D03*
X24615000Y75230000D03*
X24615000Y72690000D03*
X24615000Y70150000D03*
X24615000Y67610000D03*
X24615000Y65070000D03*
X24615000Y62530000D03*
X24615000Y59990000D03*
X24615000Y57450000D03*
X24615000Y54910000D03*
X24615000Y52370000D03*
X24615000Y49830000D03*
X24615000Y47290000D03*
X24615000Y44750000D03*
X24615000Y42210000D03*
X24615000Y39670000D03*
X24615000Y37130000D03*
X24615000Y34590000D03*
X24615000Y32050000D03*
X24615000Y29510000D03*
X24615000Y26970000D03*
X24615000Y24430000D03*
X24615000Y21890000D03*
X24615000Y19350000D03*
X24615000Y16810000D03*
X24615000Y14270000D03*
X24615000Y11730000D03*
X24615000Y9190000D03*
X24615000Y6650000D03*
X24615000Y4110000D03*
X24615000Y1570000D03*
%TD*%
D17*
%TO.C,J17*%
X19300000Y96009301D03*
X19300000Y94510701D03*
X10650015Y98251300D03*
X19299985Y98251300D03*
X19299985Y99038700D03*
X10650015Y94510700D03*
X10650015Y96009300D03*
X10650015Y99038700D03*
D18*
X17950000Y94280000D03*
X17099999Y94280000D03*
X16250001Y94280000D03*
X15400000Y94280000D03*
X14549999Y94280000D03*
X13699998Y94280000D03*
X12850000Y94280000D03*
X11999999Y94280000D03*
X11999999Y95630000D03*
X12850000Y95630000D03*
X13699998Y95630000D03*
X14549999Y95630000D03*
X15400000Y95630000D03*
X16250001Y95630000D03*
X17099999Y95630000D03*
X17950000Y95630000D03*
D19*
X19300000Y95260001D03*
D20*
X19299985Y98645000D03*
D19*
X10650015Y95260000D03*
D20*
X10650015Y98645000D03*
%TD*%
D10*
%TO.C,*%
X95000000Y95000000D03*
%TD*%
D16*
%TO.C,J8*%
X62075000Y57450000D03*
D12*
X62075000Y54910000D03*
X62075000Y52370000D03*
X62075000Y49830000D03*
X62075000Y47290000D03*
X62075000Y44750000D03*
X62075000Y42210000D03*
X62075000Y39670000D03*
X62075000Y37130000D03*
X62075000Y34590000D03*
X62075000Y32050000D03*
X62075000Y29510000D03*
X62075000Y26970000D03*
X62075000Y24430000D03*
X62075000Y21890000D03*
X62075000Y19350000D03*
X62075000Y16810000D03*
X62075000Y14270000D03*
X62075000Y11730000D03*
X62075000Y9190000D03*
X62075000Y6650000D03*
X62075000Y4110000D03*
X62075000Y1570000D03*
%TD*%
D11*
%TO.C,J4*%
X44615000Y98090000D03*
D12*
X44615000Y95550000D03*
X44615000Y93010000D03*
X44615000Y90470000D03*
X44615000Y87930000D03*
X44615000Y85390000D03*
X44615000Y82850000D03*
X44615000Y80310000D03*
X44615000Y77770000D03*
X44615000Y75230000D03*
X44615000Y72690000D03*
X44615000Y70150000D03*
X44615000Y67610000D03*
X44615000Y65070000D03*
X44615000Y62530000D03*
X44615000Y59990000D03*
X44615000Y57450000D03*
X44615000Y54910000D03*
X44615000Y52370000D03*
X44615000Y49830000D03*
X44615000Y47290000D03*
X44615000Y44750000D03*
X44615000Y42210000D03*
X44615000Y39670000D03*
X44615000Y37130000D03*
X44615000Y34590000D03*
X44615000Y32050000D03*
X44615000Y29510000D03*
X44615000Y26970000D03*
X44615000Y24430000D03*
X44615000Y21890000D03*
X44615000Y19350000D03*
X44615000Y16810000D03*
X44615000Y14270000D03*
X44615000Y11730000D03*
X44615000Y9190000D03*
X44615000Y6650000D03*
X44615000Y4110000D03*
X44615000Y1570000D03*
%TD*%
D21*
%TO.C,D1*%
X17645000Y10460000D03*
X19220000Y10460000D03*
%TD*%
D22*
%TO.C,R2*%
X16130000Y90510000D03*
X14480000Y90510000D03*
%TD*%
D16*
%TO.C,J2*%
X22075000Y57450000D03*
D12*
X22075000Y54910000D03*
X22075000Y52370000D03*
X22075000Y49830000D03*
X22075000Y47290000D03*
X22075000Y44750000D03*
X22075000Y42210000D03*
X22075000Y39670000D03*
X22075000Y37130000D03*
X22075000Y34590000D03*
X22075000Y32050000D03*
X22075000Y29510000D03*
X22075000Y26970000D03*
X22075000Y24430000D03*
X22075000Y21890000D03*
X22075000Y19350000D03*
X22075000Y16810000D03*
X22075000Y14270000D03*
X22075000Y11730000D03*
X22075000Y9190000D03*
X22075000Y6650000D03*
X22075000Y4110000D03*
X22075000Y1570000D03*
%TD*%
D23*
%TO.C,*%
X9000000Y93000000D03*
%TD*%
D10*
%TO.C,*%
X95000000Y5000000D03*
%TD*%
D11*
%TO.C,J13*%
X3980000Y89200000D03*
D12*
X1440000Y89200000D03*
X3980000Y86660000D03*
X1440000Y86660000D03*
X3980000Y84120000D03*
X1440000Y84120000D03*
X3980000Y81580000D03*
X1440000Y81580000D03*
X3980000Y79040000D03*
X1440000Y79040000D03*
X3980000Y76500000D03*
X1440000Y76500000D03*
X3980000Y73960000D03*
X1440000Y73960000D03*
X3980000Y71420000D03*
X1440000Y71420000D03*
X3980000Y68880000D03*
X1440000Y68880000D03*
X3980000Y66340000D03*
X1440000Y66340000D03*
X3980000Y63800000D03*
X1440000Y63800000D03*
X3980000Y61260000D03*
X1440000Y61260000D03*
X3980000Y58720000D03*
X1440000Y58720000D03*
X3980000Y56180000D03*
X1440000Y56180000D03*
X3980000Y53640000D03*
X1440000Y53640000D03*
X3980000Y51100000D03*
X1440000Y51100000D03*
X3980000Y48560000D03*
X1440000Y48560000D03*
X3980000Y46020000D03*
X1440000Y46020000D03*
X3980000Y43480000D03*
X1440000Y43480000D03*
X3980000Y40940000D03*
X1440000Y40940000D03*
X3980000Y38400000D03*
X1440000Y38400000D03*
X3980000Y35860000D03*
X1440000Y35860000D03*
X3980000Y33320000D03*
X1440000Y33320000D03*
X3980000Y30780000D03*
X1440000Y30780000D03*
X3980000Y28240000D03*
X1440000Y28240000D03*
X3980000Y25700000D03*
X1440000Y25700000D03*
X3980000Y23160000D03*
X1440000Y23160000D03*
X3980000Y20620000D03*
X1440000Y20620000D03*
X3980000Y18080000D03*
X1440000Y18080000D03*
X3980000Y15540000D03*
X1440000Y15540000D03*
X3980000Y13000000D03*
X1440000Y13000000D03*
X3980000Y10460000D03*
X1440000Y10460000D03*
%TD*%
D11*
%TO.C,J10*%
X84615000Y98090000D03*
D12*
X84615000Y95550000D03*
X84615000Y93010000D03*
X84615000Y90470000D03*
X84615000Y87930000D03*
X84615000Y85390000D03*
X84615000Y82850000D03*
X84615000Y80310000D03*
X84615000Y77770000D03*
X84615000Y75230000D03*
X84615000Y72690000D03*
X84615000Y70150000D03*
X84615000Y67610000D03*
X84615000Y65070000D03*
X84615000Y62530000D03*
X84615000Y59990000D03*
X84615000Y57450000D03*
X84615000Y54910000D03*
X84615000Y52370000D03*
X84615000Y49830000D03*
X84615000Y47290000D03*
X84615000Y44750000D03*
X84615000Y42210000D03*
X84615000Y39670000D03*
X84615000Y37130000D03*
X84615000Y34590000D03*
X84615000Y32050000D03*
X84615000Y29510000D03*
X84615000Y26970000D03*
X84615000Y24430000D03*
X84615000Y21890000D03*
X84615000Y19350000D03*
X84615000Y16810000D03*
X84615000Y14270000D03*
X84615000Y11730000D03*
X84615000Y9190000D03*
X84615000Y6650000D03*
X84615000Y4110000D03*
X84615000Y1570000D03*
%TD*%
D24*
%TO.C,C1*%
X19207500Y12365000D03*
X17657500Y12365000D03*
%TD*%
D10*
%TO.C,*%
X5000000Y95000000D03*
%TD*%
D25*
%TO.C,D2*%
X16045000Y88565000D03*
X14470000Y88565000D03*
%TD*%
D11*
%TO.C,J15*%
X30660000Y94350000D03*
D12*
X33200000Y94350000D03*
X35740000Y94350000D03*
X38280000Y94350000D03*
%TD*%
D26*
%TO.C,U1*%
X11164097Y8074347D03*
X12114098Y8074347D03*
X13064099Y8074347D03*
X13064099Y10773849D03*
X11164097Y10773849D03*
%TD*%
%TO.C,U2*%
X11164097Y12519347D03*
X12114098Y12519347D03*
X13064099Y12519347D03*
X13064099Y15218849D03*
X11164097Y15218849D03*
%TD*%
M02*
